{ "courses" : [

	{ "title" : "Ceramics (TK/K)",
	  "weekday" : "Monday",
	  "capacity" : 12,
	  "instructor" : "Maria Paull",
	  "instemail" : "Maria.Paull14@gmail.com",
	  "starttime" : "13:30:00",
	  "endtime" : "14:30:00",
	  "mingrade" : 0,
	  "maxgrade" : 0,
	  "fee" : 135,
	  "featured" : "False",
	  "desc" : "ceramics.md",
	  "summary" : "Working in traditions of sculpture and function, we will create playful sculptural artworks and items that you can use!"
	},

	{ "title" : "Ceramics",
	  "weekday" : "Monday",
	  "capacity" : 12,
	  "instructor" : "Maria Paull",
	  "instemail" : "Maria.Paull14@gmail.com",
	  "starttime" : "14:30:00",
	  "endtime" : "15:30:00",
	  "mingrade" : 1,
	  "maxgrade" : 2,
	  "fee" : 135,	  
	  "desc" : "ceramics.md",
	  "summary" : "Working in traditions of sculpture and function, we will create playful sculptural artworks and items that you can use!"
	},

	{ "title" : "Math Games",
	  "weekday" : "Monday",
	  "capacity" : 12,
	  "instructor" : "Henri Ducharme",
	  "instemail" : "henri@henriducharme.com",
	  "starttime" : "13:30:00",
	  "endtime" : "14:30:00",
	  "mingrade" : 0,
	  "maxgrade" : 0,
	  "fee" : 160,
	  "desc" : "math_games.md",
	  "summary" : "Children learn math through exciting games based on Grimm's fairy tales."
	},

	{ "title" : "Origami (TK/K)",
	  "weekday" : "Monday",
	  "capacity" : 12,
	  "instructor" : "Angel Huntington-Ortega",
	  "instemail" : "angelhasemail@gmail.com",	  
	  "starttime" : "13:30:00",
	  "endtime" : "14:30:00",
	  "mingrade" : 0,
	  "maxgrade" : 0,
	  "fee" : 130,
	  "featured" : "False",	  	  
	  "desc" : "origami.md",
	  "summary" : "Fun abounds in this introductory class to origami--the Japanese Art of paper folding."
	},

	{ "title" : "Origami",
	  "weekday" : "Monday",
	  "capacity" : 12,
	  "instructor" : "Angel Huntington-Ortega",
	  "instemail" : "angelhasemail@gmail.com",	  
	  "starttime" : "14:30:00",
	  "endtime" : "15:30:00",
	  "mingrade" : 1,
	  "maxgrade" : 5,
	  "fee" : 130,	  
	  "desc" : "origami.md",
	  "summary" : "Fun abounds in this introductory class to origami--the Japanese Art of paper folding."
	},

	{ "title" : "Boy's Chess",
	  "weekday" : "Monday",
	  "capacity" : 18,
	  "instructor" : "Henri Ducharme",
	  "instemail" : "henri@henriducharme.com",	  
	  "starttime" : "14:30:00",
	  "endtime" : "15:30:00",
	  "mingrade" : 1,
	  "maxgrade" : 5,
	  "fee" : 160,
	  "desc" : "boys_chess.md",
	  "summary" : "Join the thriving chess community at Malcolm X, all levels welcome."
	},

	{ "title" : "Girl's Chess",
	  "weekday" : "Friday",
	  "capacity" : 18,
	  "instructor" : "Henri Ducharme",
	  "instemail" : "henri@henriducharme.com",	  
	  "starttime" : "14:30:00",
	  "endtime" : "15:30:00",
	  "mingrade" : 1,
	  "maxgrade" : 5,
	  "fee" : 160,
	  "desc" : "girls_chess.md",
	  "summary" : "The same great chess content in an environment where girls don't need to feel bullied or outnumbered."
	},

	{ "title" : "Young Engineers",
	  "weekday" : "Wednesday",
	  "capacity" : 12,
	  "instructor" : "Lance Akiyama",
	  "instemail" : "lance.akiyama@gmail.com",
	  "starttime" : "12:30:00",
	  "endtime" : "15:30:00",
	  "mingrade" : 1,
	  "maxgrade" : 2,
	  "fee" : 195,
	  "desc" : "young_engr.md",
	  "summary" : "Exciting engineering projects for girls and boys to explore. Young engineers spend most of the time designing, building and testing their creations."
	},

	{ "title" : "Role Playing Adventures",
	  "weekday" : "Wednesday",
	  "capacity" : 20,
	  "instructor" : "Jacob Gelender",
	  "instemail" : "jakemgelender@gmail.com",	  
	  "starttime" : "13:30:00",
	  "endtime" : "14:30:00",
	  "mingrade" : 3,
	  "maxgrade" : 5,
	  "fee" : 130,
	  "desc" : "rpg_adventure.md",
	  "summary" : "Using role-playing exercises, students will explore the development of characters, plot, and storyline planning."
	},

	{ "title" : "Ultimate Frisbee",
	  "weekday" : "Wednesday",
	  "capacity" : 12,
	  "instructor" : "Valerio Iani",
	  "instemail" : "valerio.iani@bayareadisc.org",
	  "starttime" : "14:30:00",
	  "endtime" : "15:30:00",
	  "mingrade" : 2,
	  "maxgrade" : 5,
	  "fee" : 145,
	  "desc" : "frisbee.md",
	  "summary" : "Ultimate Frisbee, is a fun, challenging, and inclusive team sport. A coed sport that teaches character, leadership and teamwork."
	},

	{ "title" : "Build the World",
	  "weekday" : "Friday",
	  "capacity" : 12,
	  "instructor" : "Henri Ducharme",
	  "instemail" : "henri@henriducharme.com",	  
	  "starttime" : "13:30:00",
	  "endtime" : "14:30:00",
	  "mingrade" : 0,
	  "maxgrade" : 0,
	  "fee" : 160,
	  "desc" : "build_the_world.md",
	  "summary" : "In this exciting crafts course for kindergarteners, students will build and animate a world from natural materials as they learn creation myths from around the world."
	},	

	{ "title" : "Cooking Around the World (TK/K)",
	  "weekday" : "Friday",
	  "capacity" : 12,
	  "instructor" : "Mindy Myers",
	  "instemail" : "mindy@cookingroundtheworld.com",
	  "starttime" : "13:30:00",
	  "endtime" : "14:30:00",
	  "mingrade" : 0,
	  "maxgrade" : 0,
	  "fee" : 195,
	  "featured" : "False",	  
	  "desc" : "cooking.md",
	  "summary" : "Cooking Around the World gives boys and girls the opportunity to learn about countries around the world by cooking and eating!"
	},

	{ "title" : "Cooking Around the World",
	  "weekday" : "Friday",
	  "capacity" : 12,
	  "instructor" : "Mindy Myers",
	  "instemail" : "mindy@cookingroundtheworld.com",
	  "starttime" : "14:30:00",
	  "endtime" : "15:30:00",
	  "mingrade" : 1,
	  "maxgrade" : 5,
	  "fee" : 260,
	  "desc" : "cooking.md",
	  "summary" : "Cooking around the world gives boys and girls the opportunity to learn about countries around the world by cooking and eating!"
	},

	{ "title" : "Capoeira (TK/K)",
	  "weekday" : "Friday",
	  "capacity" : 12,
	  "instructor" : "Maria Pauli",
	  "starttime" : "13:30:00",
	  "endtime" : "14:30:00",
	  "mingrade" : 0,
	  "maxgrade" : 0,
	  "fee" : 135,
	  "featured" : "False",	  
	  "desc" : "capoeira.md",
	  "summary" : "Capoeira is an Afro-Brazilian cultural art form that combines martial arts, dance, acrobatics and music."
	},

	{ "title" : "Capoeira",
	  "weekday" : "Friday",
	  "capacity" : 12,
	  "instructor" : "Maria Pauli",
	  "starttime" : "14:30:00",
	  "endtime" : "15:30:00",
	  "mingrade" : 1,
	  "maxgrade" : 5,
	  "fee" : 135,
	  "desc" : "capoeira.md",
	  "summary" : "Capoeira is an Afro-Brazilian cultural art form that combines martial arts, dance, acrobatics and music."
	},

	{ "title" : "Chinese (TK/K)",
	  "weekday" : "Wednesday",
	  "capacity" : 12,
	  "instructor" : "Tina Wang",
	  "starttime" : "13:30:00",
	  "endtime" : "14:30:00",
	  "mingrade" : 0,
	  "maxgrade" : 0,
	  "fee" : 160,
	  "featured" : "False",	  
	  "desc" : "chinese.md",
	  "summary" : "A gentle introduction to Chinese language and culture through interactive songs, games and music."
	},

	{ "title" : "Chinese",
	  "weekday" : "Wednesday",
	  "capacity" : 12,
	  "instructor" : "Tina Wang",
	  "starttime" : "14:30:00",
	  "endtime" : "15:30:00",
	  "mingrade" : 1,
	  "maxgrade" : 5,
	  "fee" : 160,
	  "desc" : "chinese.md",
	  "summary" : "A gentle introduction to Chinese language and culture through interactive songs, games and music."
	},

	{ "title" : "Toyology",
	  "weekday" : "Wednesday",
	  "capacity" : 12,
	  "instructor" : "Sarah Shaffer",
	  "instemail" : "enrichment@sarahscience.com",
	  "picurl" : "imgs/toyology.png",
	  "starttime" : "14:30:00",
	  "endtime" : "15:30:00",
	  "mingrade" : 0,
	  "maxgrade" : 2,
	  "fee" : 100,
	  "desc" : "toyology.md",
	  "summary" : "In these exciting hands-on science classes we will build a variety of toys and use them to demonstrate major scientific concepts."
	}
]}